<svg id="Группа_1" data-name="Группа 1" xmlns="http://www.w3.org/2000/svg" width="50" height="50" viewBox="0 0 50 50">
  <defs>
    <style>
      .cls-1 {
        fill: #fff;
      }

      .cls-2 {
        fill: #b1b1b1;
        fill-rule: evenodd;
      }
    </style>
  </defs>
  <circle id="Ellipse_1_copy_2" data-name="Ellipse 1 copy 2" class="cls-1" cx="25" cy="25" r="25"/>
  <path class="cls-2" d="M3222.01,2636.73a2.059,2.059,0,0,1-1.46-.6l-4.7-4.67a2.022,2.022,0,0,1,0-2.89,2.064,2.064,0,0,1,2.91,0l3.25,3.22,3.24-3.22a2.076,2.076,0,0,1,2.92,0,2.022,2.022,0,0,1,0,2.89l-4.7,4.67A2.076,2.076,0,0,1,3222.01,2636.73Z" transform="translate(-3197 -2606)"/>
</svg>
