<svg xmlns="http://www.w3.org/2000/svg" width="42" height="42" viewBox="0 0 42 42">
  <defs>
    <style>
      .cls-1 {
        fill: #fff;
        fill-rule: evenodd;
      }
    </style>
  </defs>
  <path class="cls-1" d="M1324.7,1169.51c-0.26.35-6.43,8.38-12.72,8.38s-12.46-8.03-12.72-8.38a0.991,0.991,0,0,1,0-1.22c0.26-.34,6.43-8.38,12.72-8.38s12.46,8.04,12.72,8.38A1.02,1.02,0,0,1,1324.7,1169.51Zm-12.72-7.58c-4.4,0-9.12,5.17-10.63,6.97,1.52,1.81,6.24,6.97,10.63,6.97s9.11-5.16,10.63-6.97C1321.09,1167.1,1316.37,1161.93,1311.98,1161.93Zm0,10.62a3.645,3.645,0,1,1,3.62-3.65A3.647,3.647,0,0,1,1311.98,1172.55Zm0-5.27a1.625,1.625,0,1,0,1.62,1.62A1.626,1.626,0,0,0,1311.98,1167.28Z" transform="translate(-1290.985 -1147.91)"/>
</svg>
