<svg id="file" xmlns="http://www.w3.org/2000/svg" xmlns:xlink="http://www.w3.org/1999/xlink" width="73" height="94" viewBox="0 0 73 94">
  <defs>
    <style>
      .cls-1 {
        fill: #ffb600;
      }

      .cls-1, .cls-2 {
        fill-rule: evenodd;
      }

      .cls-2 {
        fill: #fff;
        filter: url(#filter);
      }
    </style>
    <filter id="filter" x="43" y="0" width="32" height="31" filterUnits="userSpaceOnUse">
      <feOffset result="offset" dy="2" in="SourceAlpha"/>
      <feGaussianBlur result="blur" stdDeviation="1.414"/>
      <feFlood result="flood" flood-color="#795600" flood-opacity="0.7"/>
      <feComposite result="composite" operator="in" in2="blur"/>
      <feBlend result="blend" in="SourceGraphic"/>
    </filter>
  </defs>
  <path class="cls-1" d="M44.512,26.644V0.055H5.541C2.6,0.055,0,1.858,0,4.782v83.9A5.52,5.52,0,0,0,5.541,94H68.154C71.092,94,73,91.607,73,88.682V26.644H44.512Z"/>
  <path class="cls-2" d="M73,26.589H44.512v-26.6Z"/>
</svg>
