<svg xmlns="http://www.w3.org/2000/svg" width="16" height="16" viewBox="0 0 16 16">
  <defs>
    <style>
      .cls-1 {
        fill: #ffffff;
        fill-rule: evenodd;
      }
    </style>
  </defs>
  <path class="cls-1" d="M548,1523a1,1,0,0,1-1-1.01v-10.98a1,1,0,1,1,2,0v10.98A1,1,0,0,1,548,1523Zm-5,0a1,1,0,0,1-1-1.01v-7.97a1,1,0,1,1,2,0v7.97A1,1,0,0,1,543,1523Zm-5,0a1,1,0,0,1-1-1.01v-4.96a1,1,0,1,1,2,0v4.96A1,1,0,0,1,538,1523Z" transform="translate(-535 -1508.5)"/>
</svg>
