<svg xmlns="http://www.w3.org/2000/svg" width="20" height="20" viewBox="0 0 20 20">
  <defs>
    <style>
      .cls-1 {
        fill: #141414;
        fill-rule: evenodd;
      }
    </style>
  </defs>
  <path id="_" data-name="?" class="cls-1" d="M1006.93,1514.87h1.12a1.033,1.033,0,0,1,.37-0.85,1.4,1.4,0,0,1,.9-0.3,1.271,1.271,0,0,1,.94.34,1.332,1.332,0,0,1,.33.96,1.559,1.559,0,0,1-.25.9,12.789,12.789,0,0,1-.82,1.06,3.163,3.163,0,0,0-.73.88,3.467,3.467,0,0,0-.14,1.18h1.13a3.066,3.066,0,0,1,.07-0.79,1.26,1.26,0,0,1,.39-0.57,8.127,8.127,0,0,0,1.09-1.29,2.468,2.468,0,0,0,.41-1.4,2.132,2.132,0,0,0-.63-1.64,2.512,2.512,0,0,0-1.79-.59,2.622,2.622,0,0,0-1.74.57,1.8,1.8,0,0,0-.66,1.51Zm2.89,6.54v-1.18h-1.18v1.18h1.18Z" transform="translate(-999.33 -1507.08)"/>
</svg>
